vhdl proc_common_v3_00_a "C:\Xilinx\11.1\EDK/hw/XilinxProcessorIPLib/pcores/proc_common_v3_00_a/hdl/vhdl/proc_common_pkg.vhd"
vhdl proc_common_v3_00_a "C:\Xilinx\11.1\EDK/hw/XilinxProcessorIPLib/pcores/proc_common_v3_00_a/hdl/vhdl/ipif_pkg.vhd"
vhdl proc_common_v3_00_a "C:\Xilinx\11.1\EDK/hw/XilinxProcessorIPLib/pcores/proc_common_v3_00_a/hdl/vhdl/or_muxcy.vhd"
vhdl proc_common_v3_00_a "C:\Xilinx\11.1\EDK/hw/XilinxProcessorIPLib/pcores/proc_common_v3_00_a/hdl/vhdl/or_gate128.vhd"
vhdl proc_common_v3_00_a "C:\Xilinx\11.1\EDK/hw/XilinxProcessorIPLib/pcores/proc_common_v3_00_a/hdl/vhdl/family_support.vhd"
vhdl proc_common_v3_00_a "C:\Xilinx\11.1\EDK/hw/XilinxProcessorIPLib/pcores/proc_common_v3_00_a/hdl/vhdl/pselect_f.vhd"
vhdl proc_common_v3_00_a "C:\Xilinx\11.1\EDK/hw/XilinxProcessorIPLib/pcores/proc_common_v3_00_a/hdl/vhdl/counter_f.vhd"
vhdl plbv46_slave_single_v1_01_a "C:\Xilinx\11.1\EDK/hw/XilinxProcessorIPLib/pcores/plbv46_slave_single_v1_01_a/hdl/vhdl/plb_address_decoder.vhd"
vhdl plbv46_slave_single_v1_01_a "C:\Xilinx\11.1\EDK/hw/XilinxProcessorIPLib/pcores/plbv46_slave_single_v1_01_a/hdl/vhdl/plb_slave_attachment.vhd"
vhdl plbv46_slave_single_v1_01_a "C:\Xilinx\11.1\EDK/hw/XilinxProcessorIPLib/pcores/plbv46_slave_single_v1_01_a/hdl/vhdl/plbv46_slave_single.vhd"
vhdl ad7928_v1_00_b "../hdl/vhdl/user_logic.vhd"
vhdl ad7928_v1_00_b "../hdl/vhdl/ad7928.vhd"
